{
  "productName": "ouchn",
  "directories": {
    "output": "release/"
  },
  "files": [
    "**/*",
    "!**/*.ts",
    "!*.code-workspace",
    "!LICENSE.md",
    "!package.json",
    "!package-lock.json",
    "!src/",
    "!e2e/",
    "!hooks/",
    "!angular.json",
    "!_config.yml",
    "!karma.conf.js",
    "!tsconfig.json",
    "!tslint.json"
  ],
  "win": {
    "icon": "dist/logo.v2.png",
    "target": [
      "portable"
    ]
  },
  "mac": {
    "icon": "dist/logo.v2.png",
    "target": [
      "dmg"
    ]
  },
  "linux": {
    "icon": "dist/logo.v2.png",
    "target": [
      "AppImage"
    ]
  }
}